^C:\OF\LIBS\OPENFRAMEWORKSCOMPILED\LIB\VS\WIN32\OPENFRAMEWORKSLIB_DEBUG.LIB|C:\USERS\JACKS\SOURCE\REPOS\WORMGAME\WORMGAME\OBJ\DEBUG\BALA.OBJ|C:\USERS\JACKS\SOURCE\REPOS\WORMGAME\WORMGAME\OBJ\DEBUG\CANHAO.OBJ|C:\USERS\JACKS\SOURCE\REPOS\WORMGAME\WORMGAME\OBJ\DEBUG\ICON.RES|C:\USERS\JACKS\SOURCE\REPOS\WORMGAME\WORMGAME\OBJ\DEBUG\MAIN.OBJ|C:\USERS\JACKS\SOURCE\REPOS\WORMGAME\WORMGAME\OBJ\DEBUG\OFAPP.OBJ|C:\USERS\JACKS\SOURCE\REPOS\WORMGAME\WORMGAME\OBJ\DEBUG\WORLD.OBJ
C:\OF\LIBS\CAIRO\LIB\VS\WIN32\CAIRO-STATIC.LIB
C:\OF\LIBS\CAIRO\LIB\VS\WIN32\PIXMAN-1.LIB
C:\OF\LIBS\CAIRO\LIB\VS\WIN32\LIBPNG.LIB
C:\OF\LIBS\CAIRO\LIB\VS\WIN32\ZLIB.LIB
C:\PROGRAM FILES (X86)\WINDOWS KITS\8.1\LIB\WINV6.3\UM\X86\MSIMG32.LIB
C:\PROGRAM FILES (X86)\WINDOWS KITS\8.1\LIB\WINV6.3\UM\X86\OPENGL32.LIB
C:\PROGRAM FILES (X86)\WINDOWS KITS\8.1\LIB\WINV6.3\UM\X86\GLU32.LIB
C:\PROGRAM FILES (X86)\WINDOWS KITS\8.1\LIB\WINV6.3\UM\X86\KERNEL32.LIB
C:\PROGRAM FILES (X86)\WINDOWS KITS\8.1\LIB\WINV6.3\UM\X86\SETUPAPI.LIB
C:\PROGRAM FILES (X86)\WINDOWS KITS\8.1\LIB\WINV6.3\UM\X86\VFW32.LIB
C:\PROGRAM FILES (X86)\WINDOWS KITS\8.1\LIB\WINV6.3\UM\X86\COMCTL32.LIB
C:\OF\LIBS\RTAUDIO\LIB\VS\WIN32\RTAUDIOD.LIB
C:\OF\LIBS\VIDEOINPUT\LIB\VS\WIN32\VIDEOINPUTD.LIB
C:\OF\LIBS\FREETYPE\LIB\VS\WIN32\LIBFREETYPE.LIB
C:\OF\LIBS\FREEIMAGE\LIB\VS\WIN32\FREEIMAGE.LIB
C:\PROGRAM FILES (X86)\WINDOWS KITS\8.1\LIB\WINV6.3\UM\X86\DSOUND.LIB
C:\PROGRAM FILES (X86)\WINDOWS KITS\8.1\LIB\WINV6.3\UM\X86\USER32.LIB
C:\PROGRAM FILES (X86)\WINDOWS KITS\8.1\LIB\WINV6.3\UM\X86\GDI32.LIB
C:\PROGRAM FILES (X86)\WINDOWS KITS\8.1\LIB\WINV6.3\UM\X86\WINSPOOL.LIB
C:\PROGRAM FILES (X86)\WINDOWS KITS\8.1\LIB\WINV6.3\UM\X86\COMDLG32.LIB
C:\PROGRAM FILES (X86)\WINDOWS KITS\8.1\LIB\WINV6.3\UM\X86\ADVAPI32.LIB
C:\PROGRAM FILES (X86)\WINDOWS KITS\8.1\LIB\WINV6.3\UM\X86\SHELL32.LIB
C:\PROGRAM FILES (X86)\WINDOWS KITS\8.1\LIB\WINV6.3\UM\X86\OLE32.LIB
C:\PROGRAM FILES (X86)\WINDOWS KITS\8.1\LIB\WINV6.3\UM\X86\OLEAUT32.LIB
C:\PROGRAM FILES (X86)\WINDOWS KITS\8.1\LIB\WINV6.3\UM\X86\UUID.LIB
C:\OF\LIBS\GLEW\LIB\VS\WIN32\GLEW32S.LIB
C:\OF\LIBS\FMODEX\LIB\VS\WIN32\FMODEX_VC.LIB
C:\OF\LIBS\OPENSSL\LIB\VS\WIN32\LIBSSL.LIB
C:\OF\LIBS\OPENSSL\LIB\VS\WIN32\LIBCRYPTO.LIB
C:\PROGRAM FILES (X86)\WINDOWS KITS\8.1\LIB\WINV6.3\UM\X86\CRYPT32.LIB
C:\OF\LIBS\CURL\LIB\VS\WIN32\LIBCURL.LIB
C:\OF\LIBS\URIPARSER\LIB\VS\WIN32\URIPARSER.LIB
C:\OF\LIBS\PUGIXML\LIB\VS\WIN32\PUGIXMLD.LIB
C:\PROGRAM FILES (X86)\WINDOWS KITS\8.1\LIB\WINV6.3\UM\X86\WS2_32.LIB
C:\OF\LIBS\TESS2\LIB\VS\WIN32\TESS2.LIB
C:\OF\LIBS\GLFW\LIB\VS\WIN32\GLFW3.LIB
C:\PROGRAM FILES (X86)\WINDOWS KITS\8.1\LIB\WINV6.3\UM\X86\WINMM.LIB
C:\PROGRAM FILES (X86)\WINDOWS KITS\8.1\LIB\WINV6.3\UM\X86\ODBC32.LIB
C:\PROGRAM FILES (X86)\WINDOWS KITS\8.1\LIB\WINV6.3\UM\X86\ODBCCP32.LIB
C:\PROGRAM FILES (X86)\WINDOWS KITS\8.1\LIB\WINV6.3\UM\X86\WLDAP32.LIB
C:\USERS\JACKS\SOURCE\REPOS\WORMGAME\WORMGAME\OBJ\DEBUG\ICON.RES
C:\USERS\JACKS\SOURCE\REPOS\WORMGAME\WORMGAME\OBJ\DEBUG\BALA.OBJ
C:\USERS\JACKS\SOURCE\REPOS\WORMGAME\WORMGAME\OBJ\DEBUG\CANHAO.OBJ
C:\USERS\JACKS\SOURCE\REPOS\WORMGAME\WORMGAME\OBJ\DEBUG\MAIN.OBJ
C:\USERS\JACKS\SOURCE\REPOS\WORMGAME\WORMGAME\OBJ\DEBUG\OFAPP.OBJ
C:\USERS\JACKS\SOURCE\REPOS\WORMGAME\WORMGAME\OBJ\DEBUG\WORLD.OBJ
C:\OF\LIBS\OPENFRAMEWORKSCOMPILED\LIB\VS\WIN32\OPENFRAMEWORKSLIB_DEBUG.LIB
C:\WINDOWS\SYSTEM32\TZRES.DLL
C:\WINDOWS\GLOBALIZATION\SORTING\SORTDEFAULT.NLS
C:\PROGRAM FILES (X86)\MICROSOFT VISUAL STUDIO\2017\COMMUNITY\VC\TOOLS\MSVC\14.14.26428\LIB\X86\MSVCPRTD.LIB
C:\OF\LIBS\BOOST\LIB\VS\WIN32\LIBBOOST_FILESYSTEM-VC141-MT-GD-1_64.LIB
C:\OF\LIBS\BOOST\LIB\VS\WIN32\LIBBOOST_SYSTEM-VC141-MT-GD-1_64.LIB
C:\PROGRAM FILES (X86)\WINDOWS KITS\8.1\LIB\WINV6.3\UM\X86\STRMIIDS.LIB
C:\PROGRAM FILES (X86)\MICROSOFT VISUAL STUDIO\2017\COMMUNITY\VC\TOOLS\MSVC\14.14.26428\LIB\X86\MSVCRTD.LIB
C:\PROGRAM FILES (X86)\MICROSOFT VISUAL STUDIO\2017\COMMUNITY\VC\TOOLS\MSVC\14.14.26428\LIB\X86\OLDNAMES.LIB
C:\PROGRAM FILES (X86)\MICROSOFT VISUAL STUDIO\2017\COMMUNITY\VC\TOOLS\MSVC\14.14.26428\LIB\X86\VCRUNTIMED.LIB
C:\PROGRAM FILES (X86)\WINDOWS KITS\10\LIB\10.0.10240.0\UCRT\X86\UCRTD.LIB
C:\PROGRAM FILES (X86)\MICROSOFT VISUAL STUDIO\2017\COMMUNITY\VC\TOOLS\MSVC\14.14.26428\BIN\HOSTX86\X86\VCTIP.EXE
