^C:\Users\jacks\source\repos\wormGame\wormGame\wormGame.vcxproj
C:\Users\jacks\source\repos\wormGame\wormGame\bin\wormGame_debug.lib
C:\Users\jacks\source\repos\wormGame\wormGame\bin\wormGame_debug.exp
^C:\Users\jacks\source\repos\wormGame\wormGame\wormGame.vcxproj
C:\Users\jacks\source\repos\wormGame\wormGame\bin\wormGame_debug.lib
C:\Users\jacks\source\repos\wormGame\wormGame\bin\wormGame_debug.exp
^C:\Users\jacks\source\repos\wormGame\wormGame\wormGame.vcxproj
C:\Users\jacks\source\repos\wormGame\wormGame\bin\wormGame_debug.lib
C:\Users\jacks\source\repos\wormGame\wormGame\bin\wormGame_debug.exp
^C:\Users\jacks\source\repos\wormGame\wormGame\wormGame.vcxproj
C:\Users\jacks\source\repos\wormGame\wormGame\bin\wormGame_debug.lib
C:\Users\jacks\source\repos\wormGame\wormGame\bin\wormGame_debug.exp
^C:\Users\jacks\source\repos\wormGame\wormGame\wormGame.vcxproj
C:\Users\jacks\source\repos\wormGame\wormGame\bin\wormGame_debug.lib
C:\Users\jacks\source\repos\wormGame\wormGame\bin\wormGame_debug.exp
^C:\Users\jacks\source\repos\wormGame\wormGame\wormGame.vcxproj
C:\Users\jacks\source\repos\wormGame\wormGame\bin\wormGame_debug.lib
C:\Users\jacks\source\repos\wormGame\wormGame\bin\wormGame_debug.exp
^C:\Users\jacks\source\repos\wormGame\wormGame\wormGame.vcxproj
C:\Users\jacks\source\repos\wormGame\wormGame\bin\wormGame_debug.lib
C:\Users\jacks\source\repos\wormGame\wormGame\bin\wormGame_debug.exp
^C:\Users\jacks\source\repos\wormGame\wormGame\wormGame.vcxproj
C:\Users\jacks\source\repos\wormGame\wormGame\bin\wormGame_debug.lib
C:\Users\jacks\source\repos\wormGame\wormGame\bin\wormGame_debug.exp
^C:\Users\jacks\source\repos\wormGame\wormGame\wormGame.vcxproj
C:\Users\jacks\source\repos\wormGame\wormGame\bin\wormGame_debug.lib
C:\Users\jacks\source\repos\wormGame\wormGame\bin\wormGame_debug.exp
^C:\Users\jacks\source\repos\wormGame\wormGame\wormGame.vcxproj
C:\Users\jacks\source\repos\wormGame\wormGame\bin\wormGame_debug.lib
C:\Users\jacks\source\repos\wormGame\wormGame\bin\wormGame_debug.exp
^C:\Users\jacks\source\repos\wormGame\wormGame\wormGame.vcxproj
C:\Users\jacks\source\repos\wormGame\wormGame\bin\wormGame_debug.lib
C:\Users\jacks\source\repos\wormGame\wormGame\bin\wormGame_debug.exp
^C:\Users\jacks\source\repos\wormGame\wormGame\wormGame.vcxproj
C:\Users\jacks\source\repos\wormGame\wormGame\bin\wormGame_debug.lib
C:\Users\jacks\source\repos\wormGame\wormGame\bin\wormGame_debug.exp
^C:\Users\jacks\source\repos\wormGame\wormGame\wormGame.vcxproj
C:\Users\jacks\source\repos\wormGame\wormGame\bin\wormGame_debug.lib
C:\Users\jacks\source\repos\wormGame\wormGame\bin\wormGame_debug.exp
^C:\Users\jacks\source\repos\wormGame\wormGame\wormGame.vcxproj
C:\Users\jacks\source\repos\wormGame\wormGame\bin\wormGame_debug.lib
C:\Users\jacks\source\repos\wormGame\wormGame\bin\wormGame_debug.exp
^C:\Users\jacks\source\repos\wormGame\wormGame\wormGame.vcxproj
C:\Users\jacks\source\repos\wormGame\wormGame\bin\wormGame_debug.lib
C:\Users\jacks\source\repos\wormGame\wormGame\bin\wormGame_debug.exp
^C:\Users\jacks\source\repos\wormGame\wormGame\wormGame.vcxproj
C:\Users\jacks\source\repos\wormGame\wormGame\bin\wormGame_debug.lib
C:\Users\jacks\source\repos\wormGame\wormGame\bin\wormGame_debug.exp
^C:\Users\jacks\source\repos\wormGame\wormGame\wormGame.vcxproj
C:\Users\jacks\source\repos\wormGame\wormGame\bin\wormGame_debug.lib
C:\Users\jacks\source\repos\wormGame\wormGame\bin\wormGame_debug.exp
^C:\Users\jacks\source\repos\wormGame\wormGame\wormGame.vcxproj
C:\Users\jacks\source\repos\wormGame\wormGame\bin\wormGame_debug.lib
C:\Users\jacks\source\repos\wormGame\wormGame\bin\wormGame_debug.exp
^C:\Users\jacks\source\repos\wormGame\wormGame\wormGame.vcxproj
C:\Users\jacks\source\repos\wormGame\wormGame\bin\wormGame_debug.lib
C:\Users\jacks\source\repos\wormGame\wormGame\bin\wormGame_debug.exp
^C:\Users\jacks\source\repos\wormGame\wormGame\wormGame.vcxproj
C:\Users\jacks\source\repos\wormGame\wormGame\bin\wormGame_debug.lib
C:\Users\jacks\source\repos\wormGame\wormGame\bin\wormGame_debug.exp
^C:\Users\jacks\source\repos\wormGame\wormGame\wormGame.vcxproj
C:\Users\jacks\source\repos\wormGame\wormGame\bin\wormGame_debug.lib
C:\Users\jacks\source\repos\wormGame\wormGame\bin\wormGame_debug.exp
^C:\Users\jacks\source\repos\wormGame\wormGame\wormGame.vcxproj
C:\Users\jacks\source\repos\wormGame\wormGame\bin\wormGame_debug.lib
C:\Users\jacks\source\repos\wormGame\wormGame\bin\wormGame_debug.exp
^C:\Users\jacks\source\repos\wormGame\wormGame\wormGame.vcxproj
C:\Users\jacks\source\repos\wormGame\wormGame\bin\wormGame_debug.lib
C:\Users\jacks\source\repos\wormGame\wormGame\bin\wormGame_debug.exp
^C:\Users\jacks\source\repos\wormGame\wormGame\wormGame.vcxproj
C:\Users\jacks\source\repos\wormGame\wormGame\bin\wormGame_debug.lib
C:\Users\jacks\source\repos\wormGame\wormGame\bin\wormGame_debug.exp
^C:\Users\jacks\source\repos\wormGame\wormGame\wormGame.vcxproj
C:\Users\jacks\source\repos\wormGame\wormGame\bin\wormGame_debug.lib
C:\Users\jacks\source\repos\wormGame\wormGame\bin\wormGame_debug.exp
^C:\Users\jacks\source\repos\wormGame\wormGame\wormGame.vcxproj
C:\Users\jacks\source\repos\wormGame\wormGame\bin\wormGame_debug.lib
C:\Users\jacks\source\repos\wormGame\wormGame\bin\wormGame_debug.exp
^C:\Users\jacks\source\repos\wormGame\wormGame\wormGame.vcxproj
C:\Users\jacks\source\repos\wormGame\wormGame\bin\wormGame_debug.lib
C:\Users\jacks\source\repos\wormGame\wormGame\bin\wormGame_debug.exp
^C:\Users\jacks\source\repos\wormGame\wormGame\wormGame.vcxproj
C:\Users\jacks\source\repos\wormGame\wormGame\bin\wormGame_debug.lib
C:\Users\jacks\source\repos\wormGame\wormGame\bin\wormGame_debug.exp
^C:\Users\jacks\source\repos\wormGame\wormGame\wormGame.vcxproj
C:\Users\jacks\source\repos\wormGame\wormGame\bin\wormGame_debug.lib
C:\Users\jacks\source\repos\wormGame\wormGame\bin\wormGame_debug.exp
^C:\Users\jacks\source\repos\wormGame\wormGame\wormGame.vcxproj
C:\Users\jacks\source\repos\wormGame\wormGame\bin\wormGame_debug.lib
C:\Users\jacks\source\repos\wormGame\wormGame\bin\wormGame_debug.exp
^C:\Users\jacks\source\repos\wormGame\wormGame\wormGame.vcxproj
C:\Users\jacks\source\repos\wormGame\wormGame\bin\wormGame_debug.lib
C:\Users\jacks\source\repos\wormGame\wormGame\bin\wormGame_debug.exp
^C:\Users\jacks\source\repos\wormGame\wormGame\wormGame.vcxproj
C:\Users\jacks\source\repos\wormGame\wormGame\bin\wormGame_debug.lib
C:\Users\jacks\source\repos\wormGame\wormGame\bin\wormGame_debug.exp
^C:\Users\jacks\source\repos\wormGame\wormGame\wormGame.vcxproj
C:\Users\jacks\source\repos\wormGame\wormGame\bin\wormGame_debug.lib
C:\Users\jacks\source\repos\wormGame\wormGame\bin\wormGame_debug.exp
^C:\Users\jacks\source\repos\wormGame\wormGame\wormGame.vcxproj
C:\Users\jacks\source\repos\wormGame\wormGame\bin\wormGame_debug.lib
C:\Users\jacks\source\repos\wormGame\wormGame\bin\wormGame_debug.exp
^C:\Users\jacks\source\repos\wormGame\wormGame\wormGame.vcxproj
C:\Users\jacks\source\repos\wormGame\wormGame\bin\wormGame_debug.lib
C:\Users\jacks\source\repos\wormGame\wormGame\bin\wormGame_debug.exp
^C:\Users\jacks\source\repos\wormGame\wormGame\wormGame.vcxproj
C:\Users\jacks\source\repos\wormGame\wormGame\bin\wormGame_debug.lib
C:\Users\jacks\source\repos\wormGame\wormGame\bin\wormGame_debug.exp
^C:\Users\jacks\source\repos\wormGame\wormGame\wormGame.vcxproj
C:\Users\jacks\source\repos\wormGame\wormGame\bin\wormGame_debug.lib
C:\Users\jacks\source\repos\wormGame\wormGame\bin\wormGame_debug.exp
^C:\Users\jacks\source\repos\wormGame\wormGame\wormGame.vcxproj
C:\Users\jacks\source\repos\wormGame\wormGame\bin\wormGame_debug.lib
C:\Users\jacks\source\repos\wormGame\wormGame\bin\wormGame_debug.exp
^C:\Users\jacks\source\repos\wormGame\wormGame\wormGame.vcxproj
C:\Users\jacks\source\repos\wormGame\wormGame\bin\wormGame_debug.lib
C:\Users\jacks\source\repos\wormGame\wormGame\bin\wormGame_debug.exp
^C:\Users\jacks\source\repos\wormGame\wormGame\wormGame.vcxproj
C:\Users\jacks\source\repos\wormGame\wormGame\bin\wormGame_debug.lib
C:\Users\jacks\source\repos\wormGame\wormGame\bin\wormGame_debug.exp
^C:\Users\jacks\source\repos\wormGame\wormGame\wormGame.vcxproj
C:\Users\jacks\source\repos\wormGame\wormGame\bin\wormGame_debug.lib
C:\Users\jacks\source\repos\wormGame\wormGame\bin\wormGame_debug.exp
^C:\Users\jacks\source\repos\wormGame\wormGame\wormGame.vcxproj
C:\Users\jacks\source\repos\wormGame\wormGame\bin\wormGame_debug.lib
C:\Users\jacks\source\repos\wormGame\wormGame\bin\wormGame_debug.exp
^C:\Users\jacks\source\repos\wormGame\wormGame\wormGame.vcxproj
C:\Users\jacks\source\repos\wormGame\wormGame\bin\wormGame_debug.lib
C:\Users\jacks\source\repos\wormGame\wormGame\bin\wormGame_debug.exp
^C:\Users\jacks\source\repos\wormGame\wormGame\wormGame.vcxproj
C:\Users\jacks\source\repos\wormGame\wormGame\bin\wormGame_debug.lib
C:\Users\jacks\source\repos\wormGame\wormGame\bin\wormGame_debug.exp
^C:\Users\jacks\source\repos\wormGame\wormGame\wormGame.vcxproj
C:\Users\jacks\source\repos\wormGame\wormGame\bin\wormGame_debug.lib
C:\Users\jacks\source\repos\wormGame\wormGame\bin\wormGame_debug.exp
^C:\Users\jacks\source\repos\wormGame\wormGame\wormGame.vcxproj
C:\Users\jacks\source\repos\wormGame\wormGame\bin\wormGame_debug.lib
C:\Users\jacks\source\repos\wormGame\wormGame\bin\wormGame_debug.exp
^C:\Users\jacks\source\repos\wormGame\wormGame\wormGame.vcxproj
C:\Users\jacks\source\repos\wormGame\wormGame\bin\wormGame_debug.lib
C:\Users\jacks\source\repos\wormGame\wormGame\bin\wormGame_debug.exp
^C:\Users\jacks\source\repos\wormGame\wormGame\wormGame.vcxproj
C:\Users\jacks\source\repos\wormGame\wormGame\bin\wormGame_debug.lib
C:\Users\jacks\source\repos\wormGame\wormGame\bin\wormGame_debug.exp
^C:\Users\jacks\source\repos\wormGame\wormGame\wormGame.vcxproj
C:\Users\jacks\source\repos\wormGame\wormGame\bin\wormGame_debug.lib
C:\Users\jacks\source\repos\wormGame\wormGame\bin\wormGame_debug.exp
^C:\Users\jacks\source\repos\wormGame\wormGame\wormGame.vcxproj
C:\Users\jacks\source\repos\wormGame\wormGame\bin\wormGame_debug.lib
C:\Users\jacks\source\repos\wormGame\wormGame\bin\wormGame_debug.exp
^C:\Users\jacks\source\repos\wormGame\wormGame\wormGame.vcxproj
C:\Users\jacks\source\repos\wormGame\wormGame\bin\wormGame_debug.lib
C:\Users\jacks\source\repos\wormGame\wormGame\bin\wormGame_debug.exp
^C:\Users\jacks\source\repos\wormGame\wormGame\wormGame.vcxproj
C:\Users\jacks\source\repos\wormGame\wormGame\bin\wormGame_debug.lib
C:\Users\jacks\source\repos\wormGame\wormGame\bin\wormGame_debug.exp
^C:\Users\jacks\source\repos\wormGame\wormGame\wormGame.vcxproj
C:\Users\jacks\source\repos\wormGame\wormGame\bin\wormGame_debug.lib
C:\Users\jacks\source\repos\wormGame\wormGame\bin\wormGame_debug.exp
^C:\Users\jacks\source\repos\wormGame\wormGame\wormGame.vcxproj
C:\Users\jacks\source\repos\wormGame\wormGame\bin\wormGame_debug.lib
C:\Users\jacks\source\repos\wormGame\wormGame\bin\wormGame_debug.exp
^C:\Users\jacks\source\repos\wormGame\wormGame\wormGame.vcxproj
C:\Users\jacks\source\repos\wormGame\wormGame\bin\wormGame_debug.lib
C:\Users\jacks\source\repos\wormGame\wormGame\bin\wormGame_debug.exp
^C:\Users\jacks\source\repos\wormGame\wormGame\wormGame.vcxproj
C:\Users\jacks\source\repos\wormGame\wormGame\bin\wormGame_debug.lib
C:\Users\jacks\source\repos\wormGame\wormGame\bin\wormGame_debug.exp
^C:\Users\jacks\source\repos\wormGame\wormGame\wormGame.vcxproj
C:\Users\jacks\source\repos\wormGame\wormGame\bin\wormGame_debug.lib
C:\Users\jacks\source\repos\wormGame\wormGame\bin\wormGame_debug.exp
^C:\Users\jacks\source\repos\wormGame\wormGame\wormGame.vcxproj
C:\Users\jacks\source\repos\wormGame\wormGame\bin\wormGame_debug.lib
C:\Users\jacks\source\repos\wormGame\wormGame\bin\wormGame_debug.exp
^C:\Users\jacks\source\repos\wormGame\wormGame\wormGame.vcxproj
C:\Users\jacks\source\repos\wormGame\wormGame\bin\wormGame_debug.lib
C:\Users\jacks\source\repos\wormGame\wormGame\bin\wormGame_debug.exp
^C:\Users\jacks\source\repos\wormGame\wormGame\wormGame.vcxproj
C:\Users\jacks\source\repos\wormGame\wormGame\bin\wormGame_debug.lib
C:\Users\jacks\source\repos\wormGame\wormGame\bin\wormGame_debug.exp
^C:\Users\jacks\source\repos\wormGame\wormGame\wormGame.vcxproj
C:\Users\jacks\source\repos\wormGame\wormGame\bin\wormGame_debug.lib
C:\Users\jacks\source\repos\wormGame\wormGame\bin\wormGame_debug.exp
^C:\Users\jacks\source\repos\wormGame\wormGame\wormGame.vcxproj
C:\Users\jacks\source\repos\wormGame\wormGame\bin\wormGame_debug.lib
C:\Users\jacks\source\repos\wormGame\wormGame\bin\wormGame_debug.exp
^C:\Users\jacks\source\repos\wormGame\wormGame\wormGame.vcxproj
C:\Users\jacks\source\repos\wormGame\wormGame\bin\wormGame_debug.lib
C:\Users\jacks\source\repos\wormGame\wormGame\bin\wormGame_debug.exp
^C:\Users\jacks\source\repos\wormGame\wormGame\wormGame.vcxproj
C:\Users\jacks\source\repos\wormGame\wormGame\bin\wormGame_debug.lib
C:\Users\jacks\source\repos\wormGame\wormGame\bin\wormGame_debug.exp
^C:\Users\jacks\source\repos\wormGame\wormGame\wormGame.vcxproj
C:\Users\jacks\source\repos\wormGame\wormGame\bin\wormGame_debug.lib
C:\Users\jacks\source\repos\wormGame\wormGame\bin\wormGame_debug.exp
^C:\Users\jacks\source\repos\wormGame\wormGame\wormGame.vcxproj
C:\Users\jacks\source\repos\wormGame\wormGame\bin\wormGame_debug.lib
C:\Users\jacks\source\repos\wormGame\wormGame\bin\wormGame_debug.exp
^C:\Users\jacks\source\repos\wormGame\wormGame\wormGame.vcxproj
C:\Users\jacks\source\repos\wormGame\wormGame\bin\wormGame_debug.lib
C:\Users\jacks\source\repos\wormGame\wormGame\bin\wormGame_debug.exp
^C:\Users\jacks\source\repos\wormGame\wormGame\wormGame.vcxproj
C:\Users\jacks\source\repos\wormGame\wormGame\bin\wormGame_debug.lib
C:\Users\jacks\source\repos\wormGame\wormGame\bin\wormGame_debug.exp
^C:\Users\jacks\source\repos\wormGame\wormGame\wormGame.vcxproj
C:\Users\jacks\source\repos\wormGame\wormGame\bin\wormGame_debug.lib
C:\Users\jacks\source\repos\wormGame\wormGame\bin\wormGame_debug.exp
^C:\Users\jacks\source\repos\wormGame\wormGame\wormGame.vcxproj
C:\Users\jacks\source\repos\wormGame\wormGame\bin\wormGame_debug.lib
C:\Users\jacks\source\repos\wormGame\wormGame\bin\wormGame_debug.exp
^C:\Users\jacks\source\repos\wormGame\wormGame\wormGame.vcxproj
C:\Users\jacks\source\repos\wormGame\wormGame\bin\wormGame_debug.lib
C:\Users\jacks\source\repos\wormGame\wormGame\bin\wormGame_debug.exp
^C:\Users\jacks\source\repos\wormGame\wormGame\wormGame.vcxproj
C:\Users\jacks\source\repos\wormGame\wormGame\bin\wormGame_debug.lib
C:\Users\jacks\source\repos\wormGame\wormGame\bin\wormGame_debug.exp
^C:\Users\jacks\source\repos\wormGame\wormGame\wormGame.vcxproj
C:\Users\jacks\source\repos\wormGame\wormGame\bin\wormGame_debug.lib
C:\Users\jacks\source\repos\wormGame\wormGame\bin\wormGame_debug.exp
^C:\Users\jacks\source\repos\wormGame\wormGame\wormGame.vcxproj
C:\Users\jacks\source\repos\wormGame\wormGame\bin\wormGame_debug.lib
C:\Users\jacks\source\repos\wormGame\wormGame\bin\wormGame_debug.exp
^C:\Users\jacks\source\repos\wormGame\wormGame\wormGame.vcxproj
C:\Users\jacks\source\repos\wormGame\wormGame\bin\wormGame_debug.lib
C:\Users\jacks\source\repos\wormGame\wormGame\bin\wormGame_debug.exp
^C:\Users\jacks\source\repos\wormGame\wormGame\wormGame.vcxproj
C:\Users\jacks\source\repos\wormGame\wormGame\bin\wormGame_debug.lib
C:\Users\jacks\source\repos\wormGame\wormGame\bin\wormGame_debug.exp
^C:\Users\jacks\source\repos\wormGame\wormGame\wormGame.vcxproj
C:\Users\jacks\source\repos\wormGame\wormGame\bin\wormGame_debug.lib
C:\Users\jacks\source\repos\wormGame\wormGame\bin\wormGame_debug.exp
^C:\Users\jacks\source\repos\wormGame\wormGame\wormGame.vcxproj
C:\Users\jacks\source\repos\wormGame\wormGame\bin\wormGame_debug.lib
C:\Users\jacks\source\repos\wormGame\wormGame\bin\wormGame_debug.exp
^C:\Users\jacks\source\repos\wormGame\wormGame\wormGame.vcxproj
C:\Users\jacks\source\repos\wormGame\wormGame\bin\wormGame_debug.lib
C:\Users\jacks\source\repos\wormGame\wormGame\bin\wormGame_debug.exp
^C:\Users\jacks\source\repos\wormGame\wormGame\wormGame.vcxproj
C:\Users\jacks\source\repos\wormGame\wormGame\bin\wormGame_debug.lib
C:\Users\jacks\source\repos\wormGame\wormGame\bin\wormGame_debug.exp
^C:\Users\jacks\source\repos\wormGame\wormGame\wormGame.vcxproj
C:\Users\jacks\source\repos\wormGame\wormGame\bin\wormGame_debug.lib
C:\Users\jacks\source\repos\wormGame\wormGame\bin\wormGame_debug.exp
^C:\Users\jacks\source\repos\wormGame\wormGame\wormGame.vcxproj
C:\Users\jacks\source\repos\wormGame\wormGame\bin\wormGame_debug.lib
C:\Users\jacks\source\repos\wormGame\wormGame\bin\wormGame_debug.exp
^C:\Users\jacks\source\repos\wormGame\wormGame\wormGame.vcxproj
C:\Users\jacks\source\repos\wormGame\wormGame\bin\wormGame_debug.lib
C:\Users\jacks\source\repos\wormGame\wormGame\bin\wormGame_debug.exp
^C:\Users\jacks\source\repos\wormGame\wormGame\wormGame.vcxproj
C:\Users\jacks\source\repos\wormGame\wormGame\bin\wormGame_debug.lib
C:\Users\jacks\source\repos\wormGame\wormGame\bin\wormGame_debug.exp
^C:\Users\jacks\source\repos\wormGame\wormGame\wormGame.vcxproj
C:\Users\jacks\source\repos\wormGame\wormGame\bin\wormGame_debug.lib
C:\Users\jacks\source\repos\wormGame\wormGame\bin\wormGame_debug.exp
^C:\Users\jacks\source\repos\wormGame\wormGame\wormGame.vcxproj
C:\Users\jacks\source\repos\wormGame\wormGame\bin\wormGame_debug.lib
C:\Users\jacks\source\repos\wormGame\wormGame\bin\wormGame_debug.exp
^C:\Users\jacks\source\repos\wormGame\wormGame\wormGame.vcxproj
C:\Users\jacks\source\repos\wormGame\wormGame\bin\wormGame_debug.lib
C:\Users\jacks\source\repos\wormGame\wormGame\bin\wormGame_debug.exp
^C:\Users\jacks\source\repos\wormGame\wormGame\wormGame.vcxproj
C:\Users\jacks\source\repos\wormGame\wormGame\bin\wormGame_debug.lib
C:\Users\jacks\source\repos\wormGame\wormGame\bin\wormGame_debug.exp
^C:\Users\jacks\source\repos\wormGame\wormGame\wormGame.vcxproj
C:\Users\jacks\source\repos\wormGame\wormGame\bin\wormGame_debug.lib
C:\Users\jacks\source\repos\wormGame\wormGame\bin\wormGame_debug.exp
^C:\Users\jacks\source\repos\wormGame\wormGame\wormGame.vcxproj
C:\Users\jacks\source\repos\wormGame\wormGame\bin\wormGame_debug.lib
C:\Users\jacks\source\repos\wormGame\wormGame\bin\wormGame_debug.exp
^C:\Users\jacks\source\repos\wormGame\wormGame\wormGame.vcxproj
C:\Users\jacks\source\repos\wormGame\wormGame\bin\wormGame_debug.lib
C:\Users\jacks\source\repos\wormGame\wormGame\bin\wormGame_debug.exp
^C:\Users\jacks\source\repos\wormGame\wormGame\wormGame.vcxproj
C:\Users\jacks\source\repos\wormGame\wormGame\bin\wormGame_debug.lib
C:\Users\jacks\source\repos\wormGame\wormGame\bin\wormGame_debug.exp
^C:\Users\jacks\source\repos\wormGame\wormGame\wormGame.vcxproj
C:\Users\jacks\source\repos\wormGame\wormGame\bin\wormGame_debug.lib
C:\Users\jacks\source\repos\wormGame\wormGame\bin\wormGame_debug.exp
^C:\Users\jacks\source\repos\wormGame\wormGame\wormGame.vcxproj
C:\Users\jacks\source\repos\wormGame\wormGame\bin\wormGame_debug.lib
C:\Users\jacks\source\repos\wormGame\wormGame\bin\wormGame_debug.exp
^C:\Users\jacks\source\repos\wormGame\wormGame\wormGame.vcxproj
C:\Users\jacks\source\repos\wormGame\wormGame\bin\wormGame_debug.lib
C:\Users\jacks\source\repos\wormGame\wormGame\bin\wormGame_debug.exp
^C:\Users\jacks\source\repos\wormGame\wormGame\wormGame.vcxproj
C:\Users\jacks\source\repos\wormGame\wormGame\bin\wormGame_debug.lib
C:\Users\jacks\source\repos\wormGame\wormGame\bin\wormGame_debug.exp
^C:\Users\jacks\source\repos\wormGame\wormGame\wormGame.vcxproj
C:\Users\jacks\source\repos\wormGame\wormGame\bin\wormGame_debug.lib
C:\Users\jacks\source\repos\wormGame\wormGame\bin\wormGame_debug.exp
^C:\Users\jacks\source\repos\wormGame\wormGame\wormGame.vcxproj
C:\Users\jacks\source\repos\wormGame\wormGame\bin\wormGame_debug.lib
C:\Users\jacks\source\repos\wormGame\wormGame\bin\wormGame_debug.exp
^C:\Users\jacks\source\repos\wormGame\wormGame\wormGame.vcxproj
C:\Users\jacks\source\repos\wormGame\wormGame\bin\wormGame_debug.lib
C:\Users\jacks\source\repos\wormGame\wormGame\bin\wormGame_debug.exp
^C:\Users\jacks\source\repos\wormGame\wormGame\wormGame.vcxproj
C:\Users\jacks\source\repos\wormGame\wormGame\bin\wormGame_debug.lib
C:\Users\jacks\source\repos\wormGame\wormGame\bin\wormGame_debug.exp
^C:\Users\jacks\source\repos\wormGame\wormGame\wormGame.vcxproj
C:\Users\jacks\source\repos\wormGame\wormGame\bin\wormGame_debug.lib
C:\Users\jacks\source\repos\wormGame\wormGame\bin\wormGame_debug.exp
^C:\Users\jacks\source\repos\wormGame\wormGame\wormGame.vcxproj
C:\Users\jacks\source\repos\wormGame\wormGame\bin\wormGame_debug.lib
C:\Users\jacks\source\repos\wormGame\wormGame\bin\wormGame_debug.exp
^C:\Users\jacks\source\repos\wormGame\wormGame\wormGame.vcxproj
C:\Users\jacks\source\repos\wormGame\wormGame\bin\wormGame_debug.lib
C:\Users\jacks\source\repos\wormGame\wormGame\bin\wormGame_debug.exp
^C:\Users\jacks\source\repos\wormGame\wormGame\wormGame.vcxproj
C:\Users\jacks\source\repos\wormGame\wormGame\bin\wormGame_debug.lib
C:\Users\jacks\source\repos\wormGame\wormGame\bin\wormGame_debug.exp
^C:\Users\jacks\source\repos\wormGame\wormGame\wormGame.vcxproj
C:\Users\jacks\source\repos\wormGame\wormGame\bin\wormGame_debug.lib
C:\Users\jacks\source\repos\wormGame\wormGame\bin\wormGame_debug.exp
^C:\Users\jacks\source\repos\wormGame\wormGame\wormGame.vcxproj
C:\Users\jacks\source\repos\wormGame\wormGame\bin\wormGame_debug.lib
C:\Users\jacks\source\repos\wormGame\wormGame\bin\wormGame_debug.exp
^C:\Users\jacks\source\repos\wormGame\wormGame\wormGame.vcxproj
C:\Users\jacks\source\repos\wormGame\wormGame\bin\wormGame_debug.lib
C:\Users\jacks\source\repos\wormGame\wormGame\bin\wormGame_debug.exp
^C:\Users\jacks\source\repos\wormGame\wormGame\wormGame.vcxproj
C:\Users\jacks\source\repos\wormGame\wormGame\bin\wormGame_debug.lib
C:\Users\jacks\source\repos\wormGame\wormGame\bin\wormGame_debug.exp
^C:\Users\jacks\source\repos\wormGame\wormGame\wormGame.vcxproj
C:\Users\jacks\source\repos\wormGame\wormGame\bin\wormGame_debug.lib
C:\Users\jacks\source\repos\wormGame\wormGame\bin\wormGame_debug.exp
^C:\Users\jacks\source\repos\wormGame\wormGame\wormGame.vcxproj
C:\Users\jacks\source\repos\wormGame\wormGame\bin\wormGame_debug.lib
C:\Users\jacks\source\repos\wormGame\wormGame\bin\wormGame_debug.exp
^C:\Users\jacks\source\repos\wormGame\wormGame\wormGame.vcxproj
C:\Users\jacks\source\repos\wormGame\wormGame\bin\wormGame_debug.lib
C:\Users\jacks\source\repos\wormGame\wormGame\bin\wormGame_debug.exp
^C:\Users\jacks\source\repos\wormGame\wormGame\wormGame.vcxproj
C:\Users\jacks\source\repos\wormGame\wormGame\bin\wormGame_debug.lib
C:\Users\jacks\source\repos\wormGame\wormGame\bin\wormGame_debug.exp
^C:\Users\jacks\source\repos\wormGame\wormGame\wormGame.vcxproj
C:\Users\jacks\source\repos\wormGame\wormGame\bin\wormGame_debug.lib
C:\Users\jacks\source\repos\wormGame\wormGame\bin\wormGame_debug.exp
^C:\Users\jacks\source\repos\wormGame\wormGame\wormGame.vcxproj
C:\Users\jacks\source\repos\wormGame\wormGame\bin\wormGame_debug.lib
C:\Users\jacks\source\repos\wormGame\wormGame\bin\wormGame_debug.exp
^C:\Users\jacks\source\repos\wormGame\wormGame\wormGame.vcxproj
C:\Users\jacks\source\repos\wormGame\wormGame\bin\wormGame_debug.lib
C:\Users\jacks\source\repos\wormGame\wormGame\bin\wormGame_debug.exp
^C:\Users\jacks\source\repos\wormGame\wormGame\wormGame.vcxproj
C:\Users\jacks\source\repos\wormGame\wormGame\bin\wormGame_debug.lib
C:\Users\jacks\source\repos\wormGame\wormGame\bin\wormGame_debug.exp
^C:\Users\jacks\source\repos\wormGame\wormGame\wormGame.vcxproj
C:\Users\jacks\source\repos\wormGame\wormGame\bin\wormGame_debug.lib
C:\Users\jacks\source\repos\wormGame\wormGame\bin\wormGame_debug.exp
^C:\Users\jacks\source\repos\wormGame\wormGame\wormGame.vcxproj
C:\Users\jacks\source\repos\wormGame\wormGame\bin\wormGame_debug.lib
C:\Users\jacks\source\repos\wormGame\wormGame\bin\wormGame_debug.exp
^C:\Users\jacks\source\repos\wormGame\wormGame\wormGame.vcxproj
C:\Users\jacks\source\repos\wormGame\wormGame\bin\wormGame_debug.lib
C:\Users\jacks\source\repos\wormGame\wormGame\bin\wormGame_debug.exp
^C:\Users\jacks\source\repos\wormGame\wormGame\wormGame.vcxproj
C:\Users\jacks\source\repos\wormGame\wormGame\bin\wormGame_debug.lib
C:\Users\jacks\source\repos\wormGame\wormGame\bin\wormGame_debug.exp
^C:\Users\jacks\source\repos\wormGame\wormGame\wormGame.vcxproj
C:\Users\jacks\source\repos\wormGame\wormGame\bin\wormGame_debug.lib
C:\Users\jacks\source\repos\wormGame\wormGame\bin\wormGame_debug.exp
^C:\Users\jacks\source\repos\wormGame\wormGame\wormGame.vcxproj
C:\Users\jacks\source\repos\wormGame\wormGame\bin\wormGame_debug.lib
C:\Users\jacks\source\repos\wormGame\wormGame\bin\wormGame_debug.exp
^C:\Users\jacks\source\repos\wormGame\wormGame\wormGame.vcxproj
C:\Users\jacks\source\repos\wormGame\wormGame\bin\wormGame_debug.lib
C:\Users\jacks\source\repos\wormGame\wormGame\bin\wormGame_debug.exp
^C:\Users\jacks\source\repos\wormGame\wormGame\wormGame.vcxproj
C:\Users\jacks\source\repos\wormGame\wormGame\bin\wormGame_debug.lib
C:\Users\jacks\source\repos\wormGame\wormGame\bin\wormGame_debug.exp
^C:\Users\jacks\source\repos\wormGame\wormGame\wormGame.vcxproj
C:\Users\jacks\source\repos\wormGame\wormGame\bin\wormGame_debug.lib
C:\Users\jacks\source\repos\wormGame\wormGame\bin\wormGame_debug.exp
^C:\Users\jacks\source\repos\wormGame\wormGame\wormGame.vcxproj
C:\Users\jacks\source\repos\wormGame\wormGame\bin\wormGame_debug.lib
C:\Users\jacks\source\repos\wormGame\wormGame\bin\wormGame_debug.exp
^C:\Users\jacks\source\repos\wormGame\wormGame\wormGame.vcxproj
C:\Users\jacks\source\repos\wormGame\wormGame\bin\wormGame_debug.lib
C:\Users\jacks\source\repos\wormGame\wormGame\bin\wormGame_debug.exp
^C:\Users\jacks\source\repos\wormGame\wormGame\wormGame.vcxproj
C:\Users\jacks\source\repos\wormGame\wormGame\bin\wormGame_debug.lib
C:\Users\jacks\source\repos\wormGame\wormGame\bin\wormGame_debug.exp
^C:\Users\jacks\source\repos\wormGame\wormGame\wormGame.vcxproj
C:\Users\jacks\source\repos\wormGame\wormGame\bin\wormGame_debug.lib
C:\Users\jacks\source\repos\wormGame\wormGame\bin\wormGame_debug.exp
^C:\Users\jacks\source\repos\wormGame\wormGame\wormGame.vcxproj
C:\Users\jacks\source\repos\wormGame\wormGame\bin\wormGame_debug.lib
C:\Users\jacks\source\repos\wormGame\wormGame\bin\wormGame_debug.exp
^C:\Users\jacks\source\repos\wormGame\wormGame\wormGame.vcxproj
C:\Users\jacks\source\repos\wormGame\wormGame\bin\wormGame_debug.lib
C:\Users\jacks\source\repos\wormGame\wormGame\bin\wormGame_debug.exp
^C:\Users\jacks\source\repos\wormGame\wormGame\wormGame.vcxproj
C:\Users\jacks\source\repos\wormGame\wormGame\bin\wormGame_debug.lib
C:\Users\jacks\source\repos\wormGame\wormGame\bin\wormGame_debug.exp
^C:\Users\jacks\source\repos\wormGame\wormGame\wormGame.vcxproj
C:\Users\jacks\source\repos\wormGame\wormGame\bin\wormGame_debug.lib
C:\Users\jacks\source\repos\wormGame\wormGame\bin\wormGame_debug.exp
^C:\Users\jacks\source\repos\wormGame\wormGame\wormGame.vcxproj
C:\Users\jacks\source\repos\wormGame\wormGame\bin\wormGame_debug.lib
C:\Users\jacks\source\repos\wormGame\wormGame\bin\wormGame_debug.exp
^C:\Users\jacks\source\repos\wormGame\wormGame\wormGame.vcxproj
C:\Users\jacks\source\repos\wormGame\wormGame\bin\wormGame_debug.lib
C:\Users\jacks\source\repos\wormGame\wormGame\bin\wormGame_debug.exp
^C:\Users\jacks\source\repos\wormGame\wormGame\wormGame.vcxproj
C:\Users\jacks\source\repos\wormGame\wormGame\bin\wormGame_debug.lib
C:\Users\jacks\source\repos\wormGame\wormGame\bin\wormGame_debug.exp
^C:\Users\jacks\source\repos\wormGame\wormGame\wormGame.vcxproj
C:\Users\jacks\source\repos\wormGame\wormGame\bin\wormGame_debug.lib
C:\Users\jacks\source\repos\wormGame\wormGame\bin\wormGame_debug.exp
^C:\Users\jacks\source\repos\wormGame\wormGame\wormGame.vcxproj
C:\Users\jacks\source\repos\wormGame\wormGame\bin\wormGame_debug.lib
C:\Users\jacks\source\repos\wormGame\wormGame\bin\wormGame_debug.exp
^C:\Users\jacks\source\repos\wormGame\wormGame\wormGame.vcxproj
C:\Users\jacks\source\repos\wormGame\wormGame\bin\wormGame_debug.lib
C:\Users\jacks\source\repos\wormGame\wormGame\bin\wormGame_debug.exp
^C:\Users\jacks\source\repos\wormGame\wormGame\wormGame.vcxproj
C:\Users\jacks\source\repos\wormGame\wormGame\bin\wormGame_debug.lib
C:\Users\jacks\source\repos\wormGame\wormGame\bin\wormGame_debug.exp
^C:\Users\jacks\source\repos\wormGame\wormGame\wormGame.vcxproj
C:\Users\jacks\source\repos\wormGame\wormGame\bin\wormGame_debug.lib
C:\Users\jacks\source\repos\wormGame\wormGame\bin\wormGame_debug.exp
^C:\Users\jacks\source\repos\wormGame\wormGame\wormGame.vcxproj
C:\Users\jacks\source\repos\wormGame\wormGame\bin\wormGame_debug.lib
C:\Users\jacks\source\repos\wormGame\wormGame\bin\wormGame_debug.exp
^C:\Users\jacks\source\repos\wormGame\wormGame\wormGame.vcxproj
C:\Users\jacks\source\repos\wormGame\wormGame\bin\wormGame_debug.lib
C:\Users\jacks\source\repos\wormGame\wormGame\bin\wormGame_debug.exp
^C:\Users\jacks\source\repos\wormGame\wormGame\wormGame.vcxproj
C:\Users\jacks\source\repos\wormGame\wormGame\bin\wormGame_debug.lib
C:\Users\jacks\source\repos\wormGame\wormGame\bin\wormGame_debug.exp
^C:\Users\jacks\source\repos\wormGame\wormGame\wormGame.vcxproj
C:\Users\jacks\source\repos\wormGame\wormGame\bin\wormGame_debug.lib
C:\Users\jacks\source\repos\wormGame\wormGame\bin\wormGame_debug.exp
^C:\Users\jacks\source\repos\wormGame\wormGame\wormGame.vcxproj
C:\Users\jacks\source\repos\wormGame\wormGame\bin\wormGame_debug.lib
C:\Users\jacks\source\repos\wormGame\wormGame\bin\wormGame_debug.exp
^C:\Users\jacks\source\repos\wormGame\wormGame\wormGame.vcxproj
C:\Users\jacks\source\repos\wormGame\wormGame\bin\wormGame_debug.lib
C:\Users\jacks\source\repos\wormGame\wormGame\bin\wormGame_debug.exp
^C:\Users\jacks\source\repos\wormGame\wormGame\wormGame.vcxproj
C:\Users\jacks\source\repos\wormGame\wormGame\bin\wormGame_debug.lib
C:\Users\jacks\source\repos\wormGame\wormGame\bin\wormGame_debug.exp
^C:\Users\jacks\source\repos\wormGame\wormGame\wormGame.vcxproj
C:\Users\jacks\source\repos\wormGame\wormGame\bin\wormGame_debug.lib
C:\Users\jacks\source\repos\wormGame\wormGame\bin\wormGame_debug.exp
^C:\Users\jacks\source\repos\wormGame\wormGame\wormGame.vcxproj
C:\Users\jacks\source\repos\wormGame\wormGame\bin\wormGame_debug.lib
C:\Users\jacks\source\repos\wormGame\wormGame\bin\wormGame_debug.exp
^C:\Users\jacks\source\repos\wormGame\wormGame\wormGame.vcxproj
C:\Users\jacks\source\repos\wormGame\wormGame\bin\wormGame_debug.lib
C:\Users\jacks\source\repos\wormGame\wormGame\bin\wormGame_debug.exp
^C:\Users\jacks\source\repos\wormGame\wormGame\wormGame.vcxproj
C:\Users\jacks\source\repos\wormGame\wormGame\bin\wormGame_debug.lib
C:\Users\jacks\source\repos\wormGame\wormGame\bin\wormGame_debug.exp
^C:\Users\jacks\source\repos\wormGame\wormGame\wormGame.vcxproj
C:\Users\jacks\source\repos\wormGame\wormGame\bin\wormGame_debug.lib
C:\Users\jacks\source\repos\wormGame\wormGame\bin\wormGame_debug.exp
^C:\Users\jacks\source\repos\wormGame\wormGame\wormGame.vcxproj
C:\Users\jacks\source\repos\wormGame\wormGame\bin\wormGame_debug.lib
C:\Users\jacks\source\repos\wormGame\wormGame\bin\wormGame_debug.exp
^C:\Users\jacks\source\repos\wormGame\wormGame\wormGame.vcxproj
C:\Users\jacks\source\repos\wormGame\wormGame\bin\wormGame_debug.lib
C:\Users\jacks\source\repos\wormGame\wormGame\bin\wormGame_debug.exp
^C:\Users\jacks\source\repos\wormGame\wormGame\wormGame.vcxproj
C:\Users\jacks\source\repos\wormGame\wormGame\bin\wormGame_debug.lib
C:\Users\jacks\source\repos\wormGame\wormGame\bin\wormGame_debug.exp
^C:\Users\jacks\source\repos\wormGame\wormGame\wormGame.vcxproj
C:\Users\jacks\source\repos\wormGame\wormGame\bin\wormGame_debug.lib
C:\Users\jacks\source\repos\wormGame\wormGame\bin\wormGame_debug.exp
^C:\Users\jacks\source\repos\wormGame\wormGame\wormGame.vcxproj
C:\Users\jacks\source\repos\wormGame\wormGame\bin\wormGame_debug.lib
C:\Users\jacks\source\repos\wormGame\wormGame\bin\wormGame_debug.exp
^C:\Users\jacks\source\repos\wormGame\wormGame\wormGame.vcxproj
C:\Users\jacks\source\repos\wormGame\wormGame\bin\wormGame_debug.lib
C:\Users\jacks\source\repos\wormGame\wormGame\bin\wormGame_debug.exp
^C:\Users\jacks\source\repos\wormGame\wormGame\wormGame.vcxproj
C:\Users\jacks\source\repos\wormGame\wormGame\bin\wormGame_debug.lib
C:\Users\jacks\source\repos\wormGame\wormGame\bin\wormGame_debug.exp
^C:\Users\jacks\source\repos\wormGame\wormGame\wormGame.vcxproj
C:\Users\jacks\source\repos\wormGame\wormGame\bin\wormGame_debug.lib
C:\Users\jacks\source\repos\wormGame\wormGame\bin\wormGame_debug.exp
^C:\Users\jacks\source\repos\wormGame\wormGame\wormGame.vcxproj
C:\Users\jacks\source\repos\wormGame\wormGame\bin\wormGame_debug.lib
C:\Users\jacks\source\repos\wormGame\wormGame\bin\wormGame_debug.exp
^C:\Users\jacks\source\repos\wormGame\wormGame\wormGame.vcxproj
C:\Users\jacks\source\repos\wormGame\wormGame\bin\wormGame_debug.lib
C:\Users\jacks\source\repos\wormGame\wormGame\bin\wormGame_debug.exp
^C:\Users\jacks\source\repos\wormGame\wormGame\wormGame.vcxproj
C:\Users\jacks\source\repos\wormGame\wormGame\bin\wormGame_debug.lib
C:\Users\jacks\source\repos\wormGame\wormGame\bin\wormGame_debug.exp
^C:\Users\jacks\source\repos\wormGame\wormGame\wormGame.vcxproj
C:\Users\jacks\source\repos\wormGame\wormGame\bin\wormGame_debug.lib
C:\Users\jacks\source\repos\wormGame\wormGame\bin\wormGame_debug.exp
^C:\Users\jacks\source\repos\wormGame\wormGame\wormGame.vcxproj
C:\Users\jacks\source\repos\wormGame\wormGame\bin\wormGame_debug.lib
C:\Users\jacks\source\repos\wormGame\wormGame\bin\wormGame_debug.exp
^C:\Users\jacks\source\repos\wormGame\wormGame\wormGame.vcxproj
C:\Users\jacks\source\repos\wormGame\wormGame\bin\wormGame_debug.lib
C:\Users\jacks\source\repos\wormGame\wormGame\bin\wormGame_debug.exp
^C:\Users\jacks\source\repos\wormGame\wormGame\wormGame.vcxproj
C:\Users\jacks\source\repos\wormGame\wormGame\bin\wormGame_debug.lib
C:\Users\jacks\source\repos\wormGame\wormGame\bin\wormGame_debug.exp
^C:\Users\jacks\source\repos\wormGame\wormGame\wormGame.vcxproj
C:\Users\jacks\source\repos\wormGame\wormGame\bin\wormGame_debug.lib
C:\Users\jacks\source\repos\wormGame\wormGame\bin\wormGame_debug.exp
^C:\Users\jacks\source\repos\wormGame\wormGame\wormGame.vcxproj
C:\Users\jacks\source\repos\wormGame\wormGame\bin\wormGame_debug.lib
C:\Users\jacks\source\repos\wormGame\wormGame\bin\wormGame_debug.exp
^C:\Users\jacks\source\repos\wormGame\wormGame\wormGame.vcxproj
C:\Users\jacks\source\repos\wormGame\wormGame\bin\wormGame_debug.lib
C:\Users\jacks\source\repos\wormGame\wormGame\bin\wormGame_debug.exp
^C:\Users\jacks\source\repos\wormGame\wormGame\wormGame.vcxproj
C:\Users\jacks\source\repos\wormGame\wormGame\bin\wormGame_debug.lib
C:\Users\jacks\source\repos\wormGame\wormGame\bin\wormGame_debug.exp
^C:\Users\jacks\source\repos\wormGame\wormGame\wormGame.vcxproj
C:\Users\jacks\source\repos\wormGame\wormGame\bin\wormGame_debug.lib
C:\Users\jacks\source\repos\wormGame\wormGame\bin\wormGame_debug.exp
^C:\Users\jacks\source\repos\wormGame\wormGame\wormGame.vcxproj
C:\Users\jacks\source\repos\wormGame\wormGame\bin\wormGame_debug.lib
C:\Users\jacks\source\repos\wormGame\wormGame\bin\wormGame_debug.exp
^C:\Users\jacks\source\repos\wormGame\wormGame\wormGame.vcxproj
C:\Users\jacks\source\repos\wormGame\wormGame\bin\wormGame_debug.lib
C:\Users\jacks\source\repos\wormGame\wormGame\bin\wormGame_debug.exp
^C:\Users\jacks\source\repos\wormGame\wormGame\wormGame.vcxproj
C:\Users\jacks\source\repos\wormGame\wormGame\bin\wormGame_debug.lib
C:\Users\jacks\source\repos\wormGame\wormGame\bin\wormGame_debug.exp
^C:\Users\jacks\source\repos\wormGame\wormGame\wormGame.vcxproj
C:\Users\jacks\source\repos\wormGame\wormGame\bin\wormGame_debug.lib
C:\Users\jacks\source\repos\wormGame\wormGame\bin\wormGame_debug.exp
^C:\Users\jacks\source\repos\wormGame\wormGame\wormGame.vcxproj
C:\Users\jacks\source\repos\wormGame\wormGame\bin\wormGame_debug.lib
C:\Users\jacks\source\repos\wormGame\wormGame\bin\wormGame_debug.exp
^C:\Users\jacks\source\repos\wormGame\wormGame\wormGame.vcxproj
C:\Users\jacks\source\repos\wormGame\wormGame\bin\wormGame_debug.lib
C:\Users\jacks\source\repos\wormGame\wormGame\bin\wormGame_debug.exp
^C:\Users\jacks\source\repos\wormGame\wormGame\wormGame.vcxproj
C:\Users\jacks\source\repos\wormGame\wormGame\bin\wormGame_debug.lib
C:\Users\jacks\source\repos\wormGame\wormGame\bin\wormGame_debug.exp
^C:\Users\jacks\source\repos\wormGame\wormGame\wormGame.vcxproj
C:\Users\jacks\source\repos\wormGame\wormGame\bin\wormGame_debug.lib
C:\Users\jacks\source\repos\wormGame\wormGame\bin\wormGame_debug.exp
^C:\Users\jacks\source\repos\wormGame\wormGame\wormGame.vcxproj
C:\Users\jacks\source\repos\wormGame\wormGame\bin\wormGame_debug.lib
C:\Users\jacks\source\repos\wormGame\wormGame\bin\wormGame_debug.exp
^C:\Users\jacks\source\repos\wormGame\wormGame\wormGame.vcxproj
C:\Users\jacks\source\repos\wormGame\wormGame\bin\wormGame_debug.lib
C:\Users\jacks\source\repos\wormGame\wormGame\bin\wormGame_debug.exp
^C:\Users\jacks\source\repos\wormGame\wormGame\wormGame.vcxproj
C:\Users\jacks\source\repos\wormGame\wormGame\bin\wormGame_debug.lib
C:\Users\jacks\source\repos\wormGame\wormGame\bin\wormGame_debug.exp
^C:\Users\jacks\source\repos\wormGame\wormGame\wormGame.vcxproj
C:\Users\jacks\source\repos\wormGame\wormGame\bin\wormGame_debug.lib
C:\Users\jacks\source\repos\wormGame\wormGame\bin\wormGame_debug.exp
^C:\Users\jacks\source\repos\wormGame\wormGame\wormGame.vcxproj
C:\Users\jacks\source\repos\wormGame\wormGame\bin\wormGame_debug.lib
C:\Users\jacks\source\repos\wormGame\wormGame\bin\wormGame_debug.exp
^C:\Users\jacks\source\repos\wormGame\wormGame\wormGame.vcxproj
C:\Users\jacks\source\repos\wormGame\wormGame\bin\wormGame_debug.lib
C:\Users\jacks\source\repos\wormGame\wormGame\bin\wormGame_debug.exp
^C:\Users\jacks\source\repos\wormGame\wormGame\wormGame.vcxproj
C:\Users\jacks\source\repos\wormGame\wormGame\bin\wormGame_debug.lib
C:\Users\jacks\source\repos\wormGame\wormGame\bin\wormGame_debug.exp
^C:\Users\jacks\source\repos\wormGame\wormGame\wormGame.vcxproj
C:\Users\jacks\source\repos\wormGame\wormGame\bin\wormGame_debug.lib
C:\Users\jacks\source\repos\wormGame\wormGame\bin\wormGame_debug.exp
^C:\Users\jacks\source\repos\wormGame\wormGame\wormGame.vcxproj
C:\Users\jacks\source\repos\wormGame\wormGame\bin\wormGame_debug.lib
C:\Users\jacks\source\repos\wormGame\wormGame\bin\wormGame_debug.exp
^C:\Users\jacks\source\repos\wormGame\wormGame\wormGame.vcxproj
C:\Users\jacks\source\repos\wormGame\wormGame\bin\wormGame_debug.lib
C:\Users\jacks\source\repos\wormGame\wormGame\bin\wormGame_debug.exp
^C:\Users\jacks\source\repos\wormGame\wormGame\wormGame.vcxproj
C:\Users\jacks\source\repos\wormGame\wormGame\bin\wormGame_debug.lib
C:\Users\jacks\source\repos\wormGame\wormGame\bin\wormGame_debug.exp
^C:\Users\jacks\source\repos\wormGame\wormGame\wormGame.vcxproj
C:\Users\jacks\source\repos\wormGame\wormGame\bin\wormGame_debug.lib
C:\Users\jacks\source\repos\wormGame\wormGame\bin\wormGame_debug.exp
^C:\Users\jacks\source\repos\wormGame\wormGame\wormGame.vcxproj
C:\Users\jacks\source\repos\wormGame\wormGame\bin\wormGame_debug.lib
C:\Users\jacks\source\repos\wormGame\wormGame\bin\wormGame_debug.exp
^C:\Users\jacks\source\repos\wormGame\wormGame\wormGame.vcxproj
C:\Users\jacks\source\repos\wormGame\wormGame\bin\wormGame_debug.lib
C:\Users\jacks\source\repos\wormGame\wormGame\bin\wormGame_debug.exp
^C:\Users\jacks\source\repos\wormGame\wormGame\wormGame.vcxproj
C:\Users\jacks\source\repos\wormGame\wormGame\bin\wormGame_debug.lib
C:\Users\jacks\source\repos\wormGame\wormGame\bin\wormGame_debug.exp
^C:\Users\jacks\source\repos\wormGame\wormGame\wormGame.vcxproj
C:\Users\jacks\source\repos\wormGame\wormGame\bin\wormGame_debug.lib
C:\Users\jacks\source\repos\wormGame\wormGame\bin\wormGame_debug.exp
^C:\Users\jacks\source\repos\wormGame\wormGame\wormGame.vcxproj
C:\Users\jacks\source\repos\wormGame\wormGame\bin\wormGame_debug.lib
C:\Users\jacks\source\repos\wormGame\wormGame\bin\wormGame_debug.exp
^C:\Users\jacks\source\repos\wormGame\wormGame\wormGame.vcxproj
C:\Users\jacks\source\repos\wormGame\wormGame\bin\wormGame_debug.lib
C:\Users\jacks\source\repos\wormGame\wormGame\bin\wormGame_debug.exp
^C:\Users\jacks\source\repos\wormGame\wormGame\wormGame.vcxproj
C:\Users\jacks\source\repos\wormGame\wormGame\bin\wormGame_debug.lib
C:\Users\jacks\source\repos\wormGame\wormGame\bin\wormGame_debug.exp
^C:\Users\jacks\source\repos\wormGame\wormGame\wormGame.vcxproj
C:\Users\jacks\source\repos\wormGame\wormGame\bin\wormGame_debug.lib
C:\Users\jacks\source\repos\wormGame\wormGame\bin\wormGame_debug.exp
^C:\Users\jacks\source\repos\wormGame\wormGame\wormGame.vcxproj
C:\Users\jacks\source\repos\wormGame\wormGame\bin\wormGame_debug.lib
C:\Users\jacks\source\repos\wormGame\wormGame\bin\wormGame_debug.exp
^C:\Users\jacks\source\repos\wormGame\wormGame\wormGame.vcxproj
C:\Users\jacks\source\repos\wormGame\wormGame\bin\wormGame_debug.lib
C:\Users\jacks\source\repos\wormGame\wormGame\bin\wormGame_debug.exp
^C:\Users\jacks\source\repos\wormGame\wormGame\wormGame.vcxproj
C:\Users\jacks\source\repos\wormGame\wormGame\bin\wormGame_debug.lib
C:\Users\jacks\source\repos\wormGame\wormGame\bin\wormGame_debug.exp
^C:\Users\jacks\source\repos\wormGame\wormGame\wormGame.vcxproj
C:\Users\jacks\source\repos\wormGame\wormGame\bin\wormGame_debug.lib
C:\Users\jacks\source\repos\wormGame\wormGame\bin\wormGame_debug.exp
^C:\Users\jacks\source\repos\wormGame\wormGame\wormGame.vcxproj
C:\Users\jacks\source\repos\wormGame\wormGame\bin\wormGame_debug.lib
C:\Users\jacks\source\repos\wormGame\wormGame\bin\wormGame_debug.exp
^C:\Users\jacks\source\repos\wormGame\wormGame\wormGame.vcxproj
C:\Users\jacks\source\repos\wormGame\wormGame\bin\wormGame_debug.lib
C:\Users\jacks\source\repos\wormGame\wormGame\bin\wormGame_debug.exp
^C:\Users\jacks\source\repos\wormGame\wormGame\wormGame.vcxproj
C:\Users\jacks\source\repos\wormGame\wormGame\bin\wormGame_debug.lib
C:\Users\jacks\source\repos\wormGame\wormGame\bin\wormGame_debug.exp
^C:\Users\jacks\source\repos\wormGame\wormGame\wormGame.vcxproj
C:\Users\jacks\source\repos\wormGame\wormGame\bin\wormGame_debug.lib
C:\Users\jacks\source\repos\wormGame\wormGame\bin\wormGame_debug.exp
^C:\Users\jacks\source\repos\wormGame\wormGame\wormGame.vcxproj
C:\Users\jacks\source\repos\wormGame\wormGame\bin\wormGame_debug.lib
C:\Users\jacks\source\repos\wormGame\wormGame\bin\wormGame_debug.exp
^C:\Users\jacks\source\repos\wormGame\wormGame\wormGame.vcxproj
C:\Users\jacks\source\repos\wormGame\wormGame\bin\wormGame_debug.lib
C:\Users\jacks\source\repos\wormGame\wormGame\bin\wormGame_debug.exp
^C:\Users\jacks\source\repos\wormGame\wormGame\wormGame.vcxproj
C:\Users\jacks\source\repos\wormGame\wormGame\bin\wormGame_debug.lib
C:\Users\jacks\source\repos\wormGame\wormGame\bin\wormGame_debug.exp
^C:\Users\jacks\source\repos\wormGame\wormGame\wormGame.vcxproj
C:\Users\jacks\source\repos\wormGame\wormGame\bin\wormGame_debug.lib
C:\Users\jacks\source\repos\wormGame\wormGame\bin\wormGame_debug.exp
^C:\Users\jacks\source\repos\wormGame\wormGame\wormGame.vcxproj
C:\Users\jacks\source\repos\wormGame\wormGame\bin\wormGame_debug.lib
C:\Users\jacks\source\repos\wormGame\wormGame\bin\wormGame_debug.exp
^C:\Users\jacks\source\repos\wormGame\wormGame\wormGame.vcxproj
C:\Users\jacks\source\repos\wormGame\wormGame\bin\wormGame_debug.lib
C:\Users\jacks\source\repos\wormGame\wormGame\bin\wormGame_debug.exp
^C:\Users\jacks\source\repos\wormGame\wormGame\wormGame.vcxproj
C:\Users\jacks\source\repos\wormGame\wormGame\bin\wormGame_debug.lib
C:\Users\jacks\source\repos\wormGame\wormGame\bin\wormGame_debug.exp
^C:\Users\jacks\source\repos\wormGame\wormGame\wormGame.vcxproj
C:\Users\jacks\source\repos\wormGame\wormGame\bin\wormGame_debug.lib
C:\Users\jacks\source\repos\wormGame\wormGame\bin\wormGame_debug.exp
^C:\Users\jacks\source\repos\wormGame\wormGame\wormGame.vcxproj
C:\Users\jacks\source\repos\wormGame\wormGame\bin\wormGame_debug.lib
C:\Users\jacks\source\repos\wormGame\wormGame\bin\wormGame_debug.exp
^C:\Users\jacks\source\repos\wormGame\wormGame\wormGame.vcxproj
C:\Users\jacks\source\repos\wormGame\wormGame\bin\wormGame_debug.lib
C:\Users\jacks\source\repos\wormGame\wormGame\bin\wormGame_debug.exp
^C:\Users\jacks\source\repos\wormGame\wormGame\wormGame.vcxproj
C:\Users\jacks\source\repos\wormGame\wormGame\bin\wormGame_debug.lib
C:\Users\jacks\source\repos\wormGame\wormGame\bin\wormGame_debug.exp
^C:\Users\jacks\source\repos\wormGame\wormGame\wormGame.vcxproj
C:\Users\jacks\source\repos\wormGame\wormGame\bin\wormGame_debug.lib
C:\Users\jacks\source\repos\wormGame\wormGame\bin\wormGame_debug.exp
^C:\Users\jacks\source\repos\wormGame\wormGame\wormGame.vcxproj
C:\Users\jacks\source\repos\wormGame\wormGame\bin\wormGame_debug.lib
C:\Users\jacks\source\repos\wormGame\wormGame\bin\wormGame_debug.exp
^C:\Users\jacks\source\repos\wormGame\wormGame\wormGame.vcxproj
C:\Users\jacks\source\repos\wormGame\wormGame\bin\wormGame_debug.lib
C:\Users\jacks\source\repos\wormGame\wormGame\bin\wormGame_debug.exp
^C:\Users\jacks\source\repos\wormGame\wormGame\wormGame.vcxproj
C:\Users\jacks\source\repos\wormGame\wormGame\bin\wormGame_debug.lib
C:\Users\jacks\source\repos\wormGame\wormGame\bin\wormGame_debug.exp
^C:\Users\jacks\source\repos\wormGame\wormGame\wormGame.vcxproj
C:\Users\jacks\source\repos\wormGame\wormGame\bin\wormGame_debug.lib
C:\Users\jacks\source\repos\wormGame\wormGame\bin\wormGame_debug.exp
^C:\Users\jacks\source\repos\wormGame\wormGame\wormGame.vcxproj
C:\Users\jacks\source\repos\wormGame\wormGame\bin\wormGame_debug.lib
C:\Users\jacks\source\repos\wormGame\wormGame\bin\wormGame_debug.exp
^C:\Users\jacks\source\repos\wormGame\wormGame\wormGame.vcxproj
C:\Users\jacks\source\repos\wormGame\wormGame\bin\wormGame_debug.lib
C:\Users\jacks\source\repos\wormGame\wormGame\bin\wormGame_debug.exp
^C:\Users\jacks\source\repos\wormGame\wormGame\wormGame.vcxproj
C:\Users\jacks\source\repos\wormGame\wormGame\bin\wormGame_debug.lib
C:\Users\jacks\source\repos\wormGame\wormGame\bin\wormGame_debug.exp
^C:\Users\jacks\source\repos\wormGame\wormGame\wormGame.vcxproj
C:\Users\jacks\source\repos\wormGame\wormGame\bin\wormGame_debug.lib
C:\Users\jacks\source\repos\wormGame\wormGame\bin\wormGame_debug.exp
^C:\Users\jacks\source\repos\wormGame\wormGame\wormGame.vcxproj
C:\Users\jacks\source\repos\wormGame\wormGame\bin\wormGame_debug.lib
C:\Users\jacks\source\repos\wormGame\wormGame\bin\wormGame_debug.exp
^C:\Users\jacks\source\repos\wormGame\wormGame\wormGame.vcxproj
C:\Users\jacks\source\repos\wormGame\wormGame\bin\wormGame_debug.lib
C:\Users\jacks\source\repos\wormGame\wormGame\bin\wormGame_debug.exp
^C:\Users\jacks\source\repos\wormGame\wormGame\wormGame.vcxproj
C:\Users\jacks\source\repos\wormGame\wormGame\bin\wormGame_debug.lib
C:\Users\jacks\source\repos\wormGame\wormGame\bin\wormGame_debug.exp
^C:\Users\jacks\source\repos\wormGame\wormGame\wormGame.vcxproj
C:\Users\jacks\source\repos\wormGame\wormGame\bin\wormGame_debug.lib
C:\Users\jacks\source\repos\wormGame\wormGame\bin\wormGame_debug.exp
^C:\Users\jacks\source\repos\wormGame\wormGame\wormGame.vcxproj
C:\Users\jacks\source\repos\wormGame\wormGame\bin\wormGame_debug.lib
C:\Users\jacks\source\repos\wormGame\wormGame\bin\wormGame_debug.exp
^C:\Users\jacks\source\repos\wormGame\wormGame\wormGame.vcxproj
C:\Users\jacks\source\repos\wormGame\wormGame\bin\wormGame_debug.lib
C:\Users\jacks\source\repos\wormGame\wormGame\bin\wormGame_debug.exp
^C:\Users\jacks\source\repos\wormGame\wormGame\wormGame.vcxproj
C:\Users\jacks\source\repos\wormGame\wormGame\bin\wormGame_debug.lib
C:\Users\jacks\source\repos\wormGame\wormGame\bin\wormGame_debug.exp
^C:\Users\jacks\source\repos\wormGame\wormGame\wormGame.vcxproj
C:\Users\jacks\source\repos\wormGame\wormGame\bin\wormGame_debug.lib
C:\Users\jacks\source\repos\wormGame\wormGame\bin\wormGame_debug.exp
^C:\Users\jacks\source\repos\wormGame\wormGame\wormGame.vcxproj
C:\Users\jacks\source\repos\wormGame\wormGame\bin\wormGame_debug.lib
C:\Users\jacks\source\repos\wormGame\wormGame\bin\wormGame_debug.exp
^C:\Users\jacks\source\repos\wormGame\wormGame\wormGame.vcxproj
C:\Users\jacks\source\repos\wormGame\wormGame\bin\wormGame_debug.lib
C:\Users\jacks\source\repos\wormGame\wormGame\bin\wormGame_debug.exp
^C:\Users\jacks\source\repos\wormGame\wormGame\wormGame.vcxproj
C:\Users\jacks\source\repos\wormGame\wormGame\bin\wormGame_debug.lib
C:\Users\jacks\source\repos\wormGame\wormGame\bin\wormGame_debug.exp
^C:\Users\jacks\source\repos\wormGame\wormGame\wormGame.vcxproj
C:\Users\jacks\source\repos\wormGame\wormGame\bin\wormGame_debug.lib
C:\Users\jacks\source\repos\wormGame\wormGame\bin\wormGame_debug.exp
^C:\Users\jacks\source\repos\wormGame\wormGame\wormGame.vcxproj
C:\Users\jacks\source\repos\wormGame\wormGame\bin\wormGame_debug.lib
C:\Users\jacks\source\repos\wormGame\wormGame\bin\wormGame_debug.exp
^C:\Users\jacks\source\repos\wormGame\wormGame\wormGame.vcxproj
C:\Users\jacks\source\repos\wormGame\wormGame\bin\wormGame_debug.lib
C:\Users\jacks\source\repos\wormGame\wormGame\bin\wormGame_debug.exp
^C:\Users\jacks\source\repos\wormGame\wormGame\wormGame.vcxproj
C:\Users\jacks\source\repos\wormGame\wormGame\bin\wormGame_debug.lib
C:\Users\jacks\source\repos\wormGame\wormGame\bin\wormGame_debug.exp
^C:\Users\jacks\source\repos\wormGame\wormGame\wormGame.vcxproj
C:\Users\jacks\source\repos\wormGame\wormGame\bin\wormGame_debug.lib
C:\Users\jacks\source\repos\wormGame\wormGame\bin\wormGame_debug.exp
^C:\Users\jacks\source\repos\wormGame\wormGame\wormGame.vcxproj
C:\Users\jacks\source\repos\wormGame\wormGame\bin\wormGame_debug.lib
C:\Users\jacks\source\repos\wormGame\wormGame\bin\wormGame_debug.exp
^C:\Users\jacks\source\repos\wormGame\wormGame\wormGame.vcxproj
C:\Users\jacks\source\repos\wormGame\wormGame\bin\wormGame_debug.lib
C:\Users\jacks\source\repos\wormGame\wormGame\bin\wormGame_debug.exp
^C:\Users\jacks\source\repos\wormGame\wormGame\wormGame.vcxproj
C:\Users\jacks\source\repos\wormGame\wormGame\bin\wormGame_debug.lib
C:\Users\jacks\source\repos\wormGame\wormGame\bin\wormGame_debug.exp
^C:\Users\jacks\source\repos\wormGame\wormGame\wormGame.vcxproj
C:\Users\jacks\source\repos\wormGame\wormGame\bin\wormGame_debug.lib
C:\Users\jacks\source\repos\wormGame\wormGame\bin\wormGame_debug.exp
^C:\Users\jacks\source\repos\wormGame\wormGame\wormGame.vcxproj
C:\Users\jacks\source\repos\wormGame\wormGame\bin\wormGame_debug.lib
C:\Users\jacks\source\repos\wormGame\wormGame\bin\wormGame_debug.exp
^C:\Users\jacks\source\repos\wormGame\wormGame\wormGame.vcxproj
C:\Users\jacks\source\repos\wormGame\wormGame\bin\wormGame_debug.lib
C:\Users\jacks\source\repos\wormGame\wormGame\bin\wormGame_debug.exp
^C:\Users\jacks\source\repos\wormGame\wormGame\wormGame.vcxproj
C:\Users\jacks\source\repos\wormGame\wormGame\bin\wormGame_debug.lib
C:\Users\jacks\source\repos\wormGame\wormGame\bin\wormGame_debug.exp
^C:\Users\jacks\source\repos\wormGame\wormGame\wormGame.vcxproj
C:\Users\jacks\source\repos\wormGame\wormGame\bin\wormGame_debug.lib
C:\Users\jacks\source\repos\wormGame\wormGame\bin\wormGame_debug.exp
^C:\Users\jacks\source\repos\wormGame\wormGame\wormGame.vcxproj
C:\Users\jacks\source\repos\wormGame\wormGame\bin\wormGame_debug.lib
C:\Users\jacks\source\repos\wormGame\wormGame\bin\wormGame_debug.exp
^C:\Users\jacks\source\repos\wormGame\wormGame\wormGame.vcxproj
C:\Users\jacks\source\repos\wormGame\wormGame\bin\wormGame_debug.lib
C:\Users\jacks\source\repos\wormGame\wormGame\bin\wormGame_debug.exp
^C:\Users\jacks\source\repos\wormGame\wormGame\wormGame.vcxproj
C:\Users\jacks\source\repos\wormGame\wormGame\bin\wormGame_debug.lib
C:\Users\jacks\source\repos\wormGame\wormGame\bin\wormGame_debug.exp
^C:\Users\jacks\source\repos\wormGame\wormGame\wormGame.vcxproj
C:\Users\jacks\source\repos\wormGame\wormGame\bin\wormGame_debug.lib
C:\Users\jacks\source\repos\wormGame\wormGame\bin\wormGame_debug.exp
^C:\Users\jacks\source\repos\wormGame\wormGame\wormGame.vcxproj
C:\Users\jacks\source\repos\wormGame\wormGame\bin\wormGame_debug.lib
C:\Users\jacks\source\repos\wormGame\wormGame\bin\wormGame_debug.exp
^C:\Users\jacks\source\repos\wormGame\wormGame\wormGame.vcxproj
C:\Users\jacks\source\repos\wormGame\wormGame\bin\wormGame_debug.lib
C:\Users\jacks\source\repos\wormGame\wormGame\bin\wormGame_debug.exp
^C:\Users\jacks\source\repos\wormGame\wormGame\wormGame.vcxproj
C:\Users\jacks\source\repos\wormGame\wormGame\bin\wormGame_debug.lib
C:\Users\jacks\source\repos\wormGame\wormGame\bin\wormGame_debug.exp
^C:\Users\jacks\source\repos\wormGame\wormGame\wormGame.vcxproj
C:\Users\jacks\source\repos\wormGame\wormGame\bin\wormGame_debug.lib
C:\Users\jacks\source\repos\wormGame\wormGame\bin\wormGame_debug.exp
^C:\Users\jacks\source\repos\wormGame\wormGame\wormGame.vcxproj
C:\Users\jacks\source\repos\wormGame\wormGame\bin\wormGame_debug.lib
C:\Users\jacks\source\repos\wormGame\wormGame\bin\wormGame_debug.exp
^C:\Users\jacks\source\repos\wormGame\wormGame\wormGame.vcxproj
C:\Users\jacks\source\repos\wormGame\wormGame\bin\wormGame_debug.lib
C:\Users\jacks\source\repos\wormGame\wormGame\bin\wormGame_debug.exp
^C:\Users\jacks\source\repos\wormGame\wormGame\wormGame.vcxproj
C:\Users\jacks\source\repos\wormGame\wormGame\bin\wormGame_debug.lib
C:\Users\jacks\source\repos\wormGame\wormGame\bin\wormGame_debug.exp
^C:\Users\jacks\source\repos\wormGame\wormGame\wormGame.vcxproj
C:\Users\jacks\source\repos\wormGame\wormGame\bin\wormGame_debug.lib
C:\Users\jacks\source\repos\wormGame\wormGame\bin\wormGame_debug.exp
^C:\Users\jacks\source\repos\wormGame\wormGame\wormGame.vcxproj
C:\Users\jacks\source\repos\wormGame\wormGame\bin\wormGame_debug.lib
C:\Users\jacks\source\repos\wormGame\wormGame\bin\wormGame_debug.exp
^C:\Users\jacks\source\repos\wormGame\wormGame\wormGame.vcxproj
C:\Users\jacks\source\repos\wormGame\wormGame\bin\wormGame_debug.lib
C:\Users\jacks\source\repos\wormGame\wormGame\bin\wormGame_debug.exp
^C:\Users\jacks\source\repos\wormGame\wormGame\wormGame.vcxproj
C:\Users\jacks\source\repos\wormGame\wormGame\bin\wormGame_debug.lib
C:\Users\jacks\source\repos\wormGame\wormGame\bin\wormGame_debug.exp
^C:\Users\jacks\source\repos\wormGame\wormGame\wormGame.vcxproj
C:\Users\jacks\source\repos\wormGame\wormGame\bin\wormGame_debug.lib
C:\Users\jacks\source\repos\wormGame\wormGame\bin\wormGame_debug.exp
^C:\Users\jacks\source\repos\wormGame\wormGame\wormGame.vcxproj
C:\Users\jacks\source\repos\wormGame\wormGame\bin\wormGame_debug.lib
C:\Users\jacks\source\repos\wormGame\wormGame\bin\wormGame_debug.exp
^C:\Users\jacks\source\repos\wormGame\wormGame\wormGame.vcxproj
C:\Users\jacks\source\repos\wormGame\wormGame\bin\wormGame_debug.lib
C:\Users\jacks\source\repos\wormGame\wormGame\bin\wormGame_debug.exp
^C:\Users\jacks\source\repos\wormGame\wormGame\wormGame.vcxproj
C:\Users\jacks\source\repos\wormGame\wormGame\bin\wormGame_debug.lib
C:\Users\jacks\source\repos\wormGame\wormGame\bin\wormGame_debug.exp
^C:\Users\jacks\source\repos\wormGame\wormGame\wormGame.vcxproj
C:\Users\jacks\source\repos\wormGame\wormGame\bin\wormGame_debug.lib
C:\Users\jacks\source\repos\wormGame\wormGame\bin\wormGame_debug.exp
^C:\Users\jacks\source\repos\wormGame\wormGame\wormGame.vcxproj
C:\Users\jacks\source\repos\wormGame\wormGame\bin\wormGame_debug.lib
C:\Users\jacks\source\repos\wormGame\wormGame\bin\wormGame_debug.exp
^C:\Users\jacks\source\repos\wormGame\wormGame\wormGame.vcxproj
C:\Users\jacks\source\repos\wormGame\wormGame\bin\wormGame_debug.lib
C:\Users\jacks\source\repos\wormGame\wormGame\bin\wormGame_debug.exp
^C:\Users\jacks\source\repos\wormGame\wormGame\wormGame.vcxproj
C:\Users\jacks\source\repos\wormGame\wormGame\bin\wormGame_debug.lib
C:\Users\jacks\source\repos\wormGame\wormGame\bin\wormGame_debug.exp
^C:\Users\jacks\source\repos\wormGame\wormGame\wormGame.vcxproj
C:\Users\jacks\source\repos\wormGame\wormGame\bin\wormGame_debug.lib
C:\Users\jacks\source\repos\wormGame\wormGame\bin\wormGame_debug.exp
^C:\Users\jacks\source\repos\wormGame\wormGame\wormGame.vcxproj
C:\Users\jacks\source\repos\wormGame\wormGame\bin\wormGame_debug.lib
C:\Users\jacks\source\repos\wormGame\wormGame\bin\wormGame_debug.exp
^C:\Users\jacks\source\repos\wormGame\wormGame\wormGame.vcxproj
C:\Users\jacks\source\repos\wormGame\wormGame\bin\wormGame_debug.lib
C:\Users\jacks\source\repos\wormGame\wormGame\bin\wormGame_debug.exp
^C:\Users\jacks\source\repos\wormGame\wormGame\wormGame.vcxproj
C:\Users\jacks\source\repos\wormGame\wormGame\bin\wormGame_debug.lib
C:\Users\jacks\source\repos\wormGame\wormGame\bin\wormGame_debug.exp
